^D:\PROJECTS\SVN\SOURCE 原始碼\201307030_V2.9.5_SOURCECODE\FASTCOPY\FORM1.RESX
C:\PROGRAM FILES\MICROSOFT SDKS\WINDOWS\V7.0A\BIN\ZH-CHT\RESGEN.RESOURCES.DLL
^D:\PROJECTS\SVN\SOURCE 原始碼\201307030_V2.9.5_SOURCECODE\FASTCOPY\MY PROJECT\RESOURCES.RESX
^D:\PROJECTS\SOLUTIONS\CSOL_3\FASTCOPY\FORM1.RESX
C:\PROGRAM FILES\MICROSOFT SDKS\WINDOWS\V7.0A\BIN\ZH-CHT\RESGEN.RESOURCES.DLL
^D:\PROJECTS\SOLUTIONS\CSOL_3\FASTCOPY\MY PROJECT\RESOURCES.RESX
^D:\PROJECTS\SOLUTIONS\CSOL_3_1\FASTCOPY\FORM1.RESX
C:\PROGRAM FILES\MICROSOFT SDKS\WINDOWS\V7.0A\BIN\ZH-CHT\RESGEN.RESOURCES.DLL
^D:\PROJECTS\SOLUTIONS\CSOL_3_1\FASTCOPY\MY PROJECT\RESOURCES.RESX
