^D:\PROJECTS\CSOL\CSOLCLIENT\FRM2ADDBOOK.RESX
C:\PROGRAM FILES\MICROSOFT SDKS\WINDOWS\V7.0A\BIN\ZH-CHT\RESGEN.RESOURCES.DLL
^D:\PROJECTS\CSOL\CSOLCLIENT\FRM2ADDCLASS.RESX
^D:\PROJECTS\CSOL\CSOLCLIENT\FRM2ADDCONTENT.RESX
^D:\PROJECTS\CSOL\CSOLCLIENT\FRM2ADDJOURNALREC.RESX
^D:\PROJECTS\CSOL\CSOLCLIENT\FRM2ADDMB.RESX
^D:\PROJECTS\CSOL\CSOLCLIENT\FRM2ADDMBREMARKS.RESX
^D:\PROJECTS\CSOL\CSOLCLIENT\FRM2ADDMK.RESX
^D:\PROJECTS\CSOL\CSOLCLIENT\FRM2ADDNOTE.RESX
^D:\PROJECTS\CSOL\CSOLCLIENT\FRM2ADDSCHOOL.RESX
^D:\PROJECTS\CSOL\CSOLCLIENT\FRM2ADDSESSION.RESX
^D:\PROJECTS\CSOL\CSOLCLIENT\FRM2ADDSUBCLASS.RESX
^D:\PROJECTS\CSOL\CSOLCLIENT\FRM2ADDTELEINTERVIEW.RESX
^D:\PROJECTS\CSOL\CSOLCLIENT\FRM2ADDTELEINTERVIEWCLASS.RESX
^D:\PROJECTS\CSOL\CSOLCLIENT\FRM2ADDTELEINTERVIEWSTU.RESX
^D:\PROJECTS\CSOL\CSOLCLIENT\FRM2ADDTELEINTERVIEWTYPE.RESX
^D:\PROJECTS\CSOL\CSOLCLIENT\FRM2ASSIGNMENT.RESX
^D:\PROJECTS\CSOL\CSOLCLIENT\FRM2BOOKSEARCH.RESX
^D:\PROJECTS\CSOL\CSOLCLIENT\FRM2CHANGECLASS.RESX
^D:\PROJECTS\CSOL\CSOLCLIENT\FRM2CHANGESALES.RESX
^D:\PROJECTS\CSOL\CSOLCLIENT\FRM2CHANGESTUID.RESX
^D:\PROJECTS\CSOL\CSOLCLIENT\FRM2DISCDICT.RESX
^D:\PROJECTS\CSOL\CSOLCLIENT\FRM2DISCDICTTYPE.RESX
^D:\PROJECTS\CSOL\CSOLCLIENT\FRM2ENTERSTUID.RESX
^D:\PROJECTS\CSOL\CSOLCLIENT\FRM2EXAMPAPER.RESX
^D:\PROJECTS\CSOL\CSOLCLIENT\FRM2IMPORTGRADES.RESX
^D:\PROJECTS\CSOL\CSOLCLIENT\FRM2IMPORTSCH.RESX
^D:\PROJECTS\CSOL\CSOLCLIENT\FRM2IMPORTSTU.RESX
C:\WINDOWS\FONTS\MINGLIU.TTC
^D:\PROJECTS\CSOL\CSOLCLIENT\FRM2INPUTREASON.RESX
^D:\PROJECTS\CSOL\CSOLCLIENT\FRM2ISSUECARD.RESX
^D:\PROJECTS\CSOL\CSOLCLIENT\FRM2KEYPAD.RESX
C:\WINDOWS\FONTS\MICROSS.TTF
^D:\PROJECTS\CSOL\CSOLCLIENT\FRM2MODIFYCLASSAUTH.RESX
^D:\PROJECTS\CSOL\CSOLCLIENT\FRM2MODIFYPWD.RESX
^D:\PROJECTS\CSOL\CSOLCLIENT\FRM2NOTEDISPLAY.RESX
C:\WINDOWS\FONTS\KAIU.TTF
^D:\PROJECTS\CSOL\CSOLCLIENT\FRM2PAYNOTICE.RESX
^D:\PROJECTS\CSOL\CSOLCLIENT\FRM2PAYTOGETHER.RESX
^D:\PROJECTS\CSOL\CSOLCLIENT\FRM2PHOTO.RESX
^D:\PROJECTS\CSOL\CSOLCLIENT\FRM2PRINTTOGETHER.RESX
^D:\PROJECTS\CSOL\CSOLCLIENT\FRM2RECEIPTRKDICT.RESX
^D:\PROJECTS\CSOL\CSOLCLIENT\FRM2SCHSEARCH.RESX
^D:\PROJECTS\CSOL\CSOLCLIENT\FRM2SEARCHASSIGNMENT.RESX
^D:\PROJECTS\CSOL\CSOLCLIENT\FRM2SEARCHCLASS.RESX
^D:\PROJECTS\CSOL\CSOLCLIENT\FRM2SEARCHSTU.RESX
^D:\PROJECTS\CSOL\CSOLCLIENT\FRM2SEARCHSTUSMALL.RESX
^D:\PROJECTS\CSOL\CSOLCLIENT\FRM2SEATMAPMUL.RESX
^D:\PROJECTS\CSOL\CSOLCLIENT\FRM2SELECTCLASS.RESX
^D:\PROJECTS\CSOL\CSOLCLIENT\FRM2SELECTCLASSAUTHORITY.RESX
^D:\PROJECTS\CSOL\CSOLCLIENT\FRM2SELECTCOL.RESX
^D:\PROJECTS\CSOL\CSOLCLIENT\FRM2SELECTSUBCLASS.RESX
^D:\PROJECTS\CSOL\CSOLCLIENT\FRM2SETBOOKQ.RESX
^D:\PROJECTS\CSOL\CSOLCLIENT\FRM2SETCARDREADER.RESX
^D:\PROJECTS\CSOL\CSOLCLIENT\FRM2SETCHECKOWE.RESX
^D:\PROJECTS\CSOL\CSOLCLIENT\FRM2SETCLASSCONTENT.RESX
^D:\PROJECTS\CSOL\CSOLCLIENT\FRM2SETCLASSROOMSTYLE.RESX
^D:\PROJECTS\CSOL\CSOLCLIENT\FRM2SETCLASSSEQUENCE.RESX
^D:\PROJECTS\CSOL\CSOLCLIENT\FRM2SETCOLCUST.RESX
^D:\PROJECTS\CSOL\CSOLCLIENT\FRM2SETPRINT.RESX
^D:\PROJECTS\CSOL\CSOLCLIENT\FRM2SETPRINTER.RESX
^D:\PROJECTS\CSOL\CSOLCLIENT\FRM2SETPRINTSIZE.RESX
^D:\PROJECTS\CSOL\CSOLCLIENT\FRM2SETSCHCOLS.RESX
^D:\PROJECTS\CSOL\CSOLCLIENT\FRM2SETSHOWPHOTO.RESX
^D:\PROJECTS\CSOL\CSOLCLIENT\FRM2SUBJECTS.RESX
^D:\PROJECTS\CSOL\CSOLCLIENT\FRM2TELEINTERVIEWTYPE.RESX
^D:\PROJECTS\CSOL\CSOLCLIENT\FRM2UPDATERECEIPT.RESX
^D:\PROJECTS\CSOL\CSOLCLIENT\FRM2UPDCLASS.RESX
^D:\PROJECTS\CSOL\CSOLCLIENT\FRM2UPDDISC.RESX
^D:\PROJECTS\CSOL\CSOLCLIENT\FRM2UPDJOURNALREC.RESX
^D:\PROJECTS\CSOL\CSOLCLIENT\FRM2UPDKB.RESX
^D:\PROJECTS\CSOL\CSOLCLIENT\FRM2UPDPUNCHREC.RESX
^D:\PROJECTS\CSOL\CSOLCLIENT\FRM2UPDTELEINTERVIEWSTU.RESX
^D:\PROJECTS\CSOL\CSOLCLIENT\FRM2VISION.RESX
^D:\PROJECTS\CSOL\CSOLCLIENT\FRMADDCLASSROOM.RESX
^D:\PROJECTS\CSOL\CSOLCLIENT\FRMADDSTU.RESX
^D:\PROJECTS\CSOL\CSOLCLIENT\FRMASSIGNDONE.RESX
^D:\PROJECTS\CSOL\CSOLCLIENT\FRMASSIGNDONEMUL.RESX
^D:\PROJECTS\CSOL\CSOLCLIENT\FRMBOOKISSUEREC.RESX
^D:\PROJECTS\CSOL\CSOLCLIENT\FRMCARDREISSUEREC.RESX
^D:\PROJECTS\CSOL\CSOLCLIENT\FRMCHEQUEVALIDSEARCH.RESX
^D:\PROJECTS\CSOL\CSOLCLIENT\FRMCLASSCONTRATE.RESX
^D:\PROJECTS\CSOL\CSOLCLIENT\FRMCLASSPAYSTAREC.RESX
^D:\PROJECTS\CSOL\CSOLCLIENT\FRM2CLASSREG.RESX
^D:\PROJECTS\CSOL\CSOLCLIENT\FRMCLASSPUNCH.RESX
^D:\PROJECTS\CSOL\CSOLCLIENT\FRMCLASSTODAY.RESX
^D:\PROJECTS\CSOL\CSOLCLIENT\FRMCLASSTRANSFER.RESX
^D:\PROJECTS\CSOL\CSOLCLIENT\FRMDISCMODREC.RESX
^D:\PROJECTS\CSOL\CSOLCLIENT\FRMDISCOUNTSEARCH.RESX
^D:\PROJECTS\CSOL\CSOLCLIENT\FRMFAMILYSEARCH.RESX
^D:\PROJECTS\CSOL\CSOLCLIENT\FRMHANDLERPAYSTA.RESX
^D:\PROJECTS\CSOL\CSOLCLIENT\FRM2JOURNALGRP.RESX
^D:\PROJECTS\CSOL\CSOLCLIENT\FRMJOURNALREC.RESX
^D:\PROJECTS\CSOL\CSOLCLIENT\FRMJOURNALSTA.RESX
^D:\PROJECTS\CSOL\CSOLCLIENT\FRMMODIFYCLASSROOM.RESX
^D:\PROJECTS\CSOL\CSOLCLIENT\FRMNAMEREPEATSTU.RESX
^D:\PROJECTS\CSOL\CSOLCLIENT\FRMPAYRECSEARCH.RESX
^D:\PROJECTS\CSOL\CSOLCLIENT\FRMPAYSTACLASS.RESX
^D:\PROJECTS\CSOL\CSOLCLIENT\FRMPAYSTADATE.RESX
^D:\PROJECTS\CSOL\CSOLCLIENT\FRMPAYSTASUBCLASS.RESX
^D:\PROJECTS\CSOL\CSOLCLIENT\FRMPAYSTATODAY.RESX
^D:\PROJECTS\CSOL\CSOLCLIENT\FRMPOSTGRADE.RESX
^D:\PROJECTS\CSOL\CSOLCLIENT\FRMPOTENTIALSTU.RESX
^D:\PROJECTS\CSOL\CSOLCLIENT\FRMPUNCHBOARD.RESX
^D:\PROJECTS\CSOL\CSOLCLIENT\FRMPUNCHMAKEUP.RESX
^D:\PROJECTS\CSOL\CSOLCLIENT\FRMPUNCHREC.RESX
^D:\PROJECTS\CSOL\CSOLCLIENT\FRMRECEIPTMODREC.RESX
^D:\PROJECTS\CSOL\CSOLCLIENT\FRMSALESSTA.RESX
^D:\PROJECTS\CSOL\CSOLCLIENT\FRM2SEATMAP.RESX
^D:\PROJECTS\CSOL\CSOLCLIENT\FRMSEATCOUNT.RESX
^D:\PROJECTS\CSOL\CSOLCLIENT\FRMSEATPLAN.RESX
^D:\PROJECTS\CSOL\CSOLCLIENT\FRMSETASSIGNMENT.RESX
^D:\PROJECTS\CSOL\CSOLCLIENT\FRMSETAUTHORITYPWD.RESX
^D:\PROJECTS\CSOL\CSOLCLIENT\FRMSETBOOK.RESX
^D:\PROJECTS\CSOL\CSOLCLIENT\FRMSETCLASS.RESX
^D:\PROJECTS\CSOL\CSOLCLIENT\FRMSETCLASSPAPER.RESX
^D:\PROJECTS\CSOL\CSOLCLIENT\FRMSETCLASSROOM.RESX
^D:\PROJECTS\CSOL\CSOLCLIENT\FRMSETSCHOOL.RESX
^D:\PROJECTS\CSOL\CSOLCLIENT\FRMSHOWUPRATE.RESX
^D:\PROJECTS\CSOL\CSOLCLIENT\FRMSTUABSENTTODAY.RESX
^D:\PROJECTS\CSOL\CSOLCLIENT\FRMSTUBOOKISSUE.RESX
^D:\PROJECTS\CSOL\CSOLCLIENT\FRMSTUDONEASSIGN.RESX
^D:\PROJECTS\CSOL\CSOLCLIENT\FRMSTUGRADE.RESX
^D:\PROJECTS\CSOL\CSOLCLIENT\FRMSTUGRADEMUL.RESX
^D:\PROJECTS\CSOL\CSOLCLIENT\FRMSTUHERETODAY.RESX
^D:\PROJECTS\CSOL\CSOLCLIENT\FRMSTUINFO.RESX
^D:\PROJECTS\CSOL\CSOLCLIENT\FRMSTUMBSTA.RESX
^D:\PROJECTS\CSOL\CSOLCLIENT\FRMSTUMKSTA.RESX
^D:\PROJECTS\CSOL\CSOLCLIENT\FRMSTUNOASSIGN.RESX
^D:\PROJECTS\CSOL\CSOLCLIENT\FRMSTUNOBOOK.RESX
^D:\PROJECTS\CSOL\CSOLCLIENT\FRMSTUNOTEREC.RESX
^D:\PROJECTS\CSOL\CSOLCLIENT\FRMSTUOWESTA.RESX
^D:\PROJECTS\CSOL\CSOLCLIENT\FRMSTURECSEARCH.RESX
^D:\PROJECTS\CSOL\CSOLCLIENT\FRMSTUSEARCHCLASS.RESX
^D:\PROJECTS\CSOL\CSOLCLIENT\FRMSTUSEARCHMULCLASS.RESX
^D:\PROJECTS\CSOL\CSOLCLIENT\FRMSTUSEARCHSCHOOL.RESX
^D:\PROJECTS\CSOL\CSOLCLIENT\FRMTELEINTERVIEWSEARCH.RESX
^D:\PROJECTS\CSOL\CSOLCLIENT\FRMUSRINFO.RESX
^D:\PROJECTS\CSOL\CSOLCLIENT\FRM2LOGIN.RESX
^D:\PROJECTS\CSOL\CSOLCLIENT\MDIMAIN.RESX
C:\WINDOWS\ASSEMBLY\GAC_MSIL\SYSTEM.WINDOWS.FORMS.RESOURCES\2.0.0.0_ZH-CHT_B77A5C561934E089\SYSTEM.WINDOWS.FORMS.RESOURCES.DLL
^D:\PROJECTS\CSOL\CSOLCLIENT\MY PROJECT\RESOURCES.RESX
D:\PROJECTS\CSOL\CSOLCLIENT\RESOURCES\TOOL06SEARCHSTU.PNG
D:\PROJECTS\CSOL\CSOLCLIENT\RESOURCES\TOOL01CLEARSCREEN.PNG
D:\PROJECTS\CSOL\CSOLCLIENT\RESOURCES\TOOL11PUNCHMAKEUP.PNG
D:\PROJECTS\CSOL\CSOLCLIENT\RESOURCES\TOOL02RELOGIN.PNG
D:\PROJECTS\CSOL\CSOLCLIENT\RESOURCES\TOOL05CLASSSTU.PNG
D:\PROJECTS\CSOL\CSOLCLIENT\RESOURCES\TOOL03NEWSTU.PNG
D:\PROJECTS\CSOL\CSOLCLIENT\RESOURCES\TOOL10PUNCHCLASS.PNG
D:\PROJECTS\CSOL\CSOLCLIENT\RESOURCES\TOOL07STUPHOTO.PNG
D:\PROJECTS\CSOL\CSOLCLIENT\RESOURCES\TOOL04CLASSSEAT.PNG
D:\PROJECTS\CSOL\CSOLCLIENT\RESOURCES\TOOL12BOOKISSUE.PNG
D:\PROJECTS\CSOL\CSOLCLIENT\RESOURCES\TOOL09STUNOTHERE.PNG
D:\PROJECTS\CSOL\CSOLCLIENT\RESOURCES\TOOL08STUHERE.PNG
D:\PROJECTS\CSOL\CSOLCLIENT\RESOURCES\TOOL13PAYSTATODAY.PNG
^D:\PROJECTS\CSOL\CSOLCLIENT\FRMSELECTCLASS.RESX
^D:\PROJECTS\CSOL\CSOLCLIENT\MDIMAIN.ZH-CHT.RESX
