^D:\PROJECTS\SVN\SOURCE 原始碼\201307030_V2.9.5_SOURCECODE\CSOLSERVER\FRMMAIN.RESX|D:\PROJECTS\SVN\SOURCE 原始碼\201307030_V2.9.5_SOURCECODE\CSOLSERVER\MY PROJECT\RESOURCES.RESX
D:\PROJECTS\SVN\SOURCE 原始碼\201307030_V2.9.5_SOURCECODE\CSOLSERVER\OBJ\X86\DEBUG\CSOLSERVER.FRMMAIN.RESOURCES
D:\PROJECTS\SVN\SOURCE 原始碼\201307030_V2.9.5_SOURCECODE\CSOLSERVER\OBJ\X86\DEBUG\CSOLSERVER.RESOURCES.RESOURCES
