^D:\PROJECTS\CSOL\FASTCOPY\FORM1.RESX|D:\PROJECTS\CSOL\FASTCOPY\MY PROJECT\RESOURCES.RESX
D:\PROJECTS\CSOL\FASTCOPY\OBJ\DEBUG\FASTCOPY.FORM1.RESOURCES
D:\PROJECTS\CSOL\FASTCOPY\OBJ\DEBUG\FASTCOPY.RESOURCES.RESOURCES
