^D:\PROJECTS\CSOL\FASTCOPY\FORM1.RESX|D:\PROJECTS\CSOL\FASTCOPY\MY PROJECT\RESOURCES.RESX
D:\PROJECTS\CSOL\FASTCOPY\OBJ\X86\RELEASE\FASTCOPY.FORM1.RESOURCES
D:\PROJECTS\CSOL\FASTCOPY\OBJ\X86\RELEASE\FASTCOPY.RESOURCES.RESOURCES
