^D:\PROJECTS\CSOL\CSOLINTERFACE\MY PROJECT\RESOURCES.RESX
C:\WINDOWS\MICROSOFT.NET\FRAMEWORK\V1.1.4322\MSCORWKS.DLL
C:\WINDOWS\MICROSOFT.NET\FRAMEWORK\V2.0.50727\MSCORWKS.DLL
C:\WINDOWS\MICROSOFT.NET\FRAMEWORK\V4.0.30319\CLR.DLL
C:\PROGRAM FILES\MICROSOFT SDKS\WINDOWS\V7.0A\BIN\RESGEN.EXE.CONFIG
C:\PROGRAM FILES\MICROSOFT SDKS\WINDOWS\V7.0A\BIN\RESGEN.EXE
C:\WINDOWS\MICROSOFT.NET\FRAMEWORK\V2.0.50727\CONFIG\MACHINE.CONFIG
C:\WINDOWS\MICROSOFT.NET\FRAMEWORK\V2.0.50727\CONFIG\SECURITY.CONFIG
C:\WINDOWS\MICROSOFT.NET\FRAMEWORK\V2.0.50727\CONFIG\SECURITY.CONFIG.CCH
C:\WINDOWS\MICROSOFT.NET\FRAMEWORK\V2.0.50727\CONFIG\ENTERPRISESEC.CONFIG
C:\WINDOWS\MICROSOFT.NET\FRAMEWORK\V2.0.50727\CONFIG\ENTERPRISESEC.CONFIG.CCH
C:\WINDOWS\WINDOWSSHELL.MANIFEST
C:\WINDOWS\ASSEMBLY\NATIVEIMAGES_V2.0.50727_32\INDEXF8D.DAT
C:\WINDOWS\SYSTEM32\L_INTL.NLS
C:\WINDOWS\ASSEMBLY\PUBPOL12.DAT
C:\WINDOWS\ASSEMBLY\GAC_32\MSCORLIB\2.0.0.0__B77A5C561934E089\SORTTBLS.NLP
C:\WINDOWS\ASSEMBLY\GAC_32\MSCORLIB\2.0.0.0__B77A5C561934E089\SORTKEY.NLP
C:\WINDOWS\ASSEMBLY\GAC_32\MSCORLIB\2.0.0.0__B77A5C561934E089\BIG5.NLP
C:\WINDOWS\MICROSOFT.NET\FRAMEWORK\V2.0.50727\ZH-CHT\MSCORRC.DLL
C:\WINDOWS\ASSEMBLY\GAC_MSIL\MSCORLIB.RESOURCES\2.0.0.0_ZH-CHT_B77A5C561934E089\MSCORLIB.RESOURCES.DLL
C:\PROGRAM FILES\REFERENCE ASSEMBLIES\MICROSOFT\FRAMEWORK\V3.5\SYSTEM.CORE.DLL
C:\PROGRAM FILES\REFERENCE ASSEMBLIES\MICROSOFT\FRAMEWORK\V3.5\SYSTEM.DATA.DATASETEXTENSIONS.DLL
C:\WINDOWS\MICROSOFT.NET\FRAMEWORK\V2.0.50727\SYSTEM.DATA.DLL
C:\WINDOWS\MICROSOFT.NET\FRAMEWORK\V2.0.50727\SYSTEM.DLL
C:\WINDOWS\MICROSOFT.NET\FRAMEWORK\V2.0.50727\SYSTEM.XML.DLL
C:\PROGRAM FILES\REFERENCE ASSEMBLIES\MICROSOFT\FRAMEWORK\V3.5\SYSTEM.XML.LINQ.DLL
C:\PROGRAM FILES\MICROSOFT SDKS\WINDOWS\V7.0A\BIN\ZH-CHT\RESGEN.RESOURCES.DLL
