^D:\PROJECTS\SOLUTIONS\CSOL_3_1\FASTCOPY\FORM1.RESX|D:\PROJECTS\SOLUTIONS\CSOL_3_1\FASTCOPY\MY PROJECT\RESOURCES.RESX
D:\PROJECTS\SOLUTIONS\CSOL_3_1\FASTCOPY\OBJ\X86\DEBUG\FASTCOPY.FORM1.RESOURCES
D:\PROJECTS\SOLUTIONS\CSOL_3_1\FASTCOPY\OBJ\X86\DEBUG\FASTCOPY.RESOURCES.RESOURCES
^D:\PROJECTS\SVN\SOURCE 原始碼\20130822\FASTCOPY\FORM1.RESX|D:\PROJECTS\SVN\SOURCE 原始碼\20130822\FASTCOPY\MY PROJECT\RESOURCES.RESX
D:\PROJECTS\SVN\SOURCE 原始碼\20130822\FASTCOPY\OBJ\X86\DEBUG\FASTCOPY.FORM1.RESOURCES
D:\PROJECTS\SVN\SOURCE 原始碼\20130822\FASTCOPY\OBJ\X86\DEBUG\FASTCOPY.RESOURCES.RESOURCES
