^D:\PROJECTS\SVN\SOURCE 原始碼\20130927_V2.9.8_SOURCECODE\CSOLSERVER\FRMMAIN.RESX
C:\PROGRAM FILES\MICROSOFT SDKS\WINDOWS\V7.0A\BIN\ZH-CHT\RESGEN.RESOURCES.DLL
^D:\PROJECTS\SVN\SOURCE 原始碼\20130927_V2.9.8_SOURCECODE\CSOLSERVER\MY PROJECT\RESOURCES.RESX
